<?xml version="1.0" encoding="UTF-8" standalone="no"?>
<!-- Created with Inkscape (http://www.inkscape.org/) -->

<svg
   xmlns:dc="http://purl.org/dc/elements/1.1/"
   xmlns:cc="http://creativecommons.org/ns#"
   xmlns:rdf="http://www.w3.org/1999/02/22-rdf-syntax-ns#"
   xmlns:svg="http://www.w3.org/2000/svg"
   xmlns="http://www.w3.org/2000/svg"
   version="1.1"
   width="31.997999"
   height="23"
   id="svg2">
  <metadata
     id="metadata10">
    <rdf:RDF>
      <cc:Work
         rdf:about="">
        <dc:format>image/svg+xml</dc:format>
        <dc:type
           rdf:resource="http://purl.org/dc/dcmitype/StillImage" />
        <dc:title></dc:title>
      </cc:Work>
    </rdf:RDF>
  </metadata>
  <defs
     id="defs8" />
  <path
     d="M 25.913,8.143 C 25.475,3.58 21.676,0 16.999,0 13.38,0 10.281,2.148 8.853,5.23 8.423,5.094 7.975,5 7.5,5 5.015,5 3,7.016 3,9.5 3,9.994 3.099,10.461 3.246,10.904 1.313,12.031 0,14.101 0,16.499 c 0,3.59 2.91,6.5 6.5,6.5 V 23 h 17.999 v -0.001 c 4.143,0 7.499,-3.357 7.499,-7.5 0,-3.657 -2.62,-6.694 -6.085,-7.356 z m -4.253,2.931 -6.001,6.57 c -0.25,0.274 -0.587,0.37 -0.912,0.328 -0.369,0.105 -0.774,0.02 -1.063,-0.298 l -2.363,-2.587 c -0.435,-0.475 -0.435,-1.244 0,-1.719 0.434,-0.475 1.137,-0.475 1.57,0 l 1.771,1.939 5.433,-5.948 c 0.433,-0.473 1.133,-0.473 1.565,0 0.433,0.475 0.433,1.244 0,1.715 z"
     id="path4"
     style="fill:#39b29d" />
  <path
     d="M 4.8654492,22.723525 C 2.5881228,22.124253 0.69656774,20.124736 0.20868792,17.800976 0.00759923,16.843195 0.00494723,16.13899 0.19898995,15.225794 0.51780647,13.725394 1.4144039,12.316067 2.6158527,11.426822 3.2807398,10.93471 3.3020918,10.903981 3.2056603,10.578015 3.0233838,9.9618687 3.0830718,8.7367606 3.3271506,8.0844016 3.8184235,6.7713573 4.867799,5.7081968 6.0650536,5.3105327 6.6779295,5.106968 7.7696,5.0460249 8.4359947,5.1781737 L 8.8834479,5.2669055 9.3115351,4.5206806 C 9.580989,4.0509792 10.146108,3.3683843 10.836562,2.6786338 c 0.940344,-0.9393873 1.245552,-1.1694114 2.137969,-1.6113152 1.411689,-0.69903465 2.51931,-0.96429134 4.018008,-0.96224651 1.907968,0.002603 3.348677,0.43742213 4.931799,1.48846101 1.996593,1.325544 3.510346,3.6703595 3.841616,5.9506947 l 0.08448,0.581559 0.876658,0.2962399 c 1.035026,0.3497553 1.216173,0.4419088 2.082061,1.0591892 3.864012,2.7546011 4.174479,8.3055251 0.645401,11.5392851 -0.820103,0.751475 -2.150254,1.456226 -3.220582,1.706352 -1.03865,0.242724 -20.4449779,0.239701 -21.3685268,-0.0033 l 0,3e-6 z m 10.3715908,-4.7611 c 0.409746,-0.142838 6.366524,-6.633678 6.645239,-7.241024 0.386933,-0.8431703 -0.16655,-1.7417913 -1.072814,-1.7417913 -0.47103,0 -0.432918,-0.036927 -3.923715,3.8016473 l -2.211541,2.43187 -1.041608,-1.104476 c -1.015618,-1.076918 -1.053729,-1.104474 -1.527447,-1.104432 -0.406675,3.9e-5 -0.536129,0.05633 -0.794471,0.345464 -0.246706,0.276113 -0.308631,0.449912 -0.308631,0.866214 0,0.445597 0.0629,0.596915 0.435639,1.047979 0.87466,1.058459 2.360306,2.620017 2.575816,2.707432 0.312678,0.126828 0.845325,0.122962 1.223533,-0.0089 l 0,4e-6 z"
     id="path2987"
     style="fill:#00ffff" />
  <path
     d="m 12.933282,16.734548 c -0.655524,-0.679139 -1.333564,-1.427117 -1.506755,-1.662173 -0.515671,-0.699872 -0.384097,-1.547666 0.289821,-1.867461 0.549508,-0.260759 0.891083,-0.07069 1.918207,1.067389 0.500491,0.554555 0.946447,1.023126 0.991014,1.041269 0.04457,0.01814 1.342336,-1.344632 2.88393,-3.028388 1.541595,-1.683755 2.881832,-3.0916626 2.978305,-3.1286827 0.56101,-0.21528 1.103712,0.069403 1.344566,0.7053123 0.157395,0.4155594 0.04403,0.7893924 -0.402921,1.3286524 -1.150539,1.38817 -6.00768,6.588956 -6.233919,6.674972 -0.144533,0.05495 -0.444497,0.100811 -0.666586,0.10191 -0.371854,0.0018 -0.498091,-0.09569 -1.595662,-1.2328 z"
     id="path2989"
     style="fill:#ffff00" />
</svg>
