<?xml version="1.0" encoding="UTF-8" standalone="no"?>
<!-- Created with Inkscape (http://www.inkscape.org/) -->

<svg
   xmlns:dc="http://purl.org/dc/elements/1.1/"
   xmlns:cc="http://creativecommons.org/ns#"
   xmlns:rdf="http://www.w3.org/1999/02/22-rdf-syntax-ns#"
   xmlns:svg="http://www.w3.org/2000/svg"
   xmlns="http://www.w3.org/2000/svg"
   version="1.1"
   width="31.997999"
   height="23"
   id="svg2">
  <metadata
     id="metadata10">
    <rdf:RDF>
      <cc:Work
         rdf:about="">
        <dc:format>image/svg+xml</dc:format>
        <dc:type
           rdf:resource="http://purl.org/dc/dcmitype/StillImage" />
        <dc:title></dc:title>
      </cc:Work>
    </rdf:RDF>
  </metadata>
  <defs
     id="defs8" />
  <path
     d="M 25.913,8.143 C 25.474,3.58 21.675,0 16.999,0 13.379,0 10.281,2.148 8.853,5.23 8.422,5.093 7.975,5 7.5,5 5.015,5 3,7.016 3,9.5 3,9.994 3.099,10.461 3.246,10.904 1.312,12.031 0,14.1 0,16.498 c 0,3.59 2.91,6.5 6.5,6.5 V 23 h 18 v -0.002 c 4.143,0 7.498,-3.357 7.498,-7.5 -0.001,-3.656 -2.62,-6.693 -6.085,-7.355 z m -5.146,6.48 -3.781,3.727 c -0.763,0.765 -1.233,0.74 -1.974,0 l -3.781,-3.727 c -0.542,-0.885 -0.099,-1.609 0.987,-1.609 h 1.781 V 9.002 c 0,-0.553 0.448,-1.002 1,-1.002 h 2 c 0.553,0 1,0.449 1,1.002 v 4.012 h 1.779 c 1.086,0 1.532,0.724 0.989,1.609 z"
     id="path4"
     style="fill:#39b29d" />
</svg>
