<?xml version="1.0" encoding="UTF-8" standalone="no"?>
<!-- Created with Inkscape (http://www.inkscape.org/) -->

<svg
   xmlns:dc="http://purl.org/dc/elements/1.1/"
   xmlns:cc="http://creativecommons.org/ns#"
   xmlns:rdf="http://www.w3.org/1999/02/22-rdf-syntax-ns#"
   xmlns:svg="http://www.w3.org/2000/svg"
   xmlns="http://www.w3.org/2000/svg"
   version="1.1"
   width="31.997999"
   height="23"
   id="svg2">
  <metadata
     id="metadata10">
    <rdf:RDF>
      <cc:Work
         rdf:about="">
        <dc:format>image/svg+xml</dc:format>
        <dc:type
           rdf:resource="http://purl.org/dc/dcmitype/StillImage" />
        <dc:title></dc:title>
      </cc:Work>
    </rdf:RDF>
  </metadata>
  <defs
     id="defs8" />
  <path
     d="M 25.913,8.143 C 25.475,3.58 21.676,0 16.999,0 13.38,0 10.281,2.148 8.853,5.23 8.423,5.094 7.975,5 7.5,5 5.015,5 3,7.016 3,9.5 3,9.994 3.099,10.461 3.246,10.904 1.313,12.031 0,14.101 0,16.499 c 0,3.59 2.91,6.5 6.5,6.5 V 23 h 17.999 v -0.001 c 4.143,0 7.499,-3.357 7.499,-7.5 0,-3.657 -2.62,-6.694 -6.085,-7.356 z m -5.303,9.466 c -0.472,0.473 -1.236,0.473 -1.708,0 l -2.425,-2.424 -2.394,2.395 c -0.471,0.47 -1.232,0.47 -1.703,0 -0.47,-0.471 -0.47,-1.232 0,-1.703 l 2.394,-2.394 -2.424,-2.424 c -0.472,-0.473 -0.472,-1.237 0,-1.709 0.472,-0.473 1.236,-0.473 1.708,0 l 2.424,2.425 2.426,-2.426 c 0.471,-0.471 1.232,-0.471 1.703,0 0.471,0.471 0.471,1.233 0,1.703 l -2.426,2.426 2.425,2.424 c 0.473,0.471 0.473,1.237 0,1.707 z"
     id="path4"
     style="fill:#e2574c" />
</svg>
