<?xml version="1.0" encoding="UTF-8" standalone="no"?>
<!DOCTYPE svg PUBLIC "-//W3C//DTD SVG 1.0//EN"
"http://www.w3.org/TR/2001/REC-SVG-20010904/DTD/svg10.dtd">
<!-- Created with Inkscape (http://www.inkscape.org/) -->
<svg
   xmlns="http://www.w3.org/2000/svg"
   xmlns:xlink="http://www.w3.org/1999/xlink"
   version="1.0"
   x="0.0000000"
   y="0.0000000"
   width="450.00000"
   height="300.00000"
   id="svg2781">
  <defs
     id="defs2783" />
  <metadata
     id="metadata2784">
    <rdf:RDF
       id="RDF2785">
      <cc:Work
         rdf:about=""
         id="Work2786">
        <dc:format
           id="format2787">image/svg+xml</dc:format>
        <dc:type
           id="type2789"
           rdf:resource="http://purl.org/dc/dcmitype/StillImage" />
      </cc:Work>
    </rdf:RDF>
  </metadata>
  <rect
     width="450.00000"
     height="300.00000"
     x="125.00000"
     y="377.36218"
     transform="translate(-125.0000,-377.3622)"
     style="fill:#ce1126;fill-opacity:1.0000000;fill-rule:evenodd;stroke:none;stroke-width:1.0000000pt;stroke-linecap:butt;stroke-linejoin:miter;stroke-opacity:1.0000000;"
     id="rect908" />
  <rect
     width="300.00000"
     height="300.00000"
     x="125.00000"
     y="377.36218"
     transform="translate(-125.0000,-377.3622)"
     style="fill:#fcd116;fill-opacity:1.0000000;fill-rule:evenodd;stroke:none;stroke-width:1.0000000pt;stroke-linecap:butt;stroke-linejoin:miter;stroke-opacity:1.0000000;"
     id="rect2793" />
  <rect
     width="150.00000"
     height="300.00000"
     x="125.00000"
     y="377.36218"
     transform="translate(-125.0000,-377.3622)"
     style="fill:#002b7f;fill-opacity:1.0000000;fill-rule:evenodd;stroke:none;stroke-width:1.0000000pt;stroke-linecap:butt;stroke-linejoin:miter;stroke-opacity:1.0000000;"
     id="rect3415" />
</svg>
